4 Tidyverse – BioEngineering Statistics Computational Tools
…
[1] "data.frame"

4.22 pull

s %>% pull(average)

[1] 64.93942

4.23 Group then summarize

heights %>% group_by(sex)

# A tibble: 1,050 × 2
# Groups:   sex [2]
   sex    height
   <fct>   <dbl>
 1 Male       75
 2 Male       70
 3 Male       68
 4 Male       74
 5 Male       61
 6 Female     65
 7 Female     66
 8 Female     62
 9 Female     66
10 Male       67
# ℹ 1,040 more rows
…
